%YAML 1.1
%TAG !u! tag:unity3d.com,2011:
--- !u!114 &11400000
MonoBehaviour:
  m_ObjectHideFlags: 0
  m_CorrespondingSourceObject: {fileID: 0}
  m_PrefabInstance: {fileID: 0}
  m_PrefabAsset: {fileID: 0}
  m_GameObject: {fileID: 0}
  m_Enabled: 1
  m_EditorHideFlags: 0
  m_Script: {fileID: 11500000, guid: 7decf71d60cb2fe438b4d9a0a160a517, type: 3}
  m_Name: SceneLoaderManager
  m_EditorClassIdentifier: 
  loadingScreenMode: 0
  sceneList:
  - SceneName: GameScene
    SceneAsset: {fileID: 102900000, guid: 9fc0d4010bbf28b4594072e72b8655ab, type: 3}
    DisplayName: HELP ME ...
    Description: 
    SkipType: 3
    LoadingType: 1
    FakeLoadingTime: 1
    Backgrounds: []
  - SceneName: HomeScene
    SceneAsset: {fileID: 102900000, guid: 2ecf0ef6fbcb8ea4ea234bffdade2c72, type: 3}
    DisplayName: HomeScene
    Description: 
    SkipType: 3
    LoadingType: 1
    FakeLoadingTime: 3
    Backgrounds: []
  - SceneName: SplashScene
    SceneAsset: {fileID: 102900000, guid: c994af733cc3682459a0e9ca8b30fc3c, type: 3}
    DisplayName: SplashScene
    Description: 
    SkipType: 3
    LoadingType: 0
    FakeLoadingTime: 2
    Backgrounds: []
  tipsList: []
  buildSettingsAsFallback: 1
  useSynchronousAsFallback: 1
