%YAML 1.1
%TAG !u! tag:unity3d.com,2011:
--- !u!21 &2100000
Material:
  serializedVersion: 8
  m_ObjectHideFlags: 0
  m_CorrespondingSourceObject: {fileID: 0}
  m_PrefabInstance: {fileID: 0}
  m_PrefabAsset: {fileID: 0}
  m_Name: piss
  m_Shader: {fileID: 4800000, guid: 061c9244c99a1fc498de6920efceb57b, type: 3}
  m_ValidKeywords: []
  m_InvalidKeywords: []
  m_LightmapFlags: 4
  m_EnableInstancingVariants: 0
  m_DoubleSidedGI: 0
  m_CustomRenderQueue: -1
  stringTagMap: {}
  disabledShaderPasses: []
  m_SavedProperties:
    serializedVersion: 3
    m_TexEnvs:
    - _MainTex:
        m_Texture: {fileID: 8400000, guid: 7c050b78cec9ea24eb9b9f65f76127da, type: 2}
        m_Scale: {x: 1, y: 1}
        m_Offset: {x: 0, y: 0}
    m_Ints: {}
    m_Floats:
    - _BumpScale: 1
    - _Cutoff: 0.25
    - _DetailNormalMapScale: 1
    - _DstBlend: 0
    - _GlossMapScale: 1
    - _Glossiness: 0.5
    - _GlossyReflections: 1
    - _Metallic: 0
    - _Mode: 0
    - _OcclusionStrength: 1
    - _Parallax: 0.02
    - _SmoothnessTextureChannel: 0
    - _SpecularHighlights: 1
    - _SrcBlend: 1
    - _Stroke: 0.47
    - _Stroke2: 0.1
    - _UVSec: 0
    - _ZWrite: 1
    m_Colors:
    - _Color: {r: 1, g: 0.89288396, b: 0.16470587, a: 1}
    - _EmissionColor: {r: 0, g: 0, b: 0, a: 1}
    - _StrokeColor: {r: 0.9150943, g: 0.82371867, b: 0.19424175, a: 1}
    - _StrokeColor2: {r: 1, g: 1, b: 1, a: 1}
  m_BuildTextureStacks: []
